# This file uses meters as units for non-parametric coordinates.

mtllib CubicPillar.mtl
g default
v -56.099487 -218.645905 56.099499
v -56.099487 218.645905 56.099499
v -56.099487 218.645905 -56.099499
v -56.099487 -218.645905 -56.099499
v 56.099487 218.645905 -56.099499
v 56.099487 -218.645905 -56.099499
v 56.099487 -218.645905 56.099499
v 56.099487 218.645905 56.099499
v 56.099487 193.379974 56.099499
v -56.099487 193.379974 56.099499
v -56.099487 193.379974 -56.099499
v 56.099487 193.379974 -56.099499
v 56.099487 -193.379959 56.099499
v -56.099487 -193.379959 56.099499
v -56.099487 -193.379959 -56.099499
v 56.099487 -193.379959 -56.099499
v -44.219482 -179.884888 44.219559
v -44.219482 179.884918 44.219559
v 44.219482 -179.884888 44.219559
v 44.219482 179.884918 44.219559
v -44.219482 -179.884888 -44.219563
v -44.219482 179.884918 -44.219563
v 44.219482 -179.884888 -44.219563
v 44.219482 179.884918 -44.219563
vt 0.357508 0.497246
vt 0.357949 0.488294
vt 0.393913 0.490290
vt 0.393435 0.498771
vt 0.274992 0.670039
vt 0.315021 0.670066
vt 0.314147 0.711133
vt 0.274965 0.710069
vt 0.319575 0.497997
vt 0.318766 0.489338
vt 0.280607 0.499929
vt 0.280179 0.491239
vt 0.319105 0.702433
vt 0.319383 0.667119
vt 0.354696 0.667396
vt 0.354420 0.702711
vt 0.432829 0.500637
vt 0.433169 0.491796
vt 0.354999 0.659254
vt 0.391129 0.661002
vt 0.391163 0.670065
vt 0.319615 0.658745
vt 0.280382 0.657387
vt 0.280179 0.666217
vt 0.431722 0.668689
vt 0.431411 0.659555
vt 0.355360 0.652779
vt 0.356936 0.504564
vt 0.392972 0.505513
vt 0.391223 0.653632
vt 0.320258 0.504891
vt 0.319855 0.652088
vt 0.284970 0.505849
vt 0.284650 0.651208
vt 0.426925 0.653215
vt 0.428453 0.506754
vn 0.000000 0.000000 1.000000
vn 0.000000 0.000000 1.000000
vn 0.000000 0.000000 1.000000
vn 0.000000 0.000000 1.000000
vn 0.000000 -1.000000 0.000000
vn 0.000000 -1.000000 0.000000
vn 0.000000 -1.000000 0.000000
vn 0.000000 -1.000000 0.000000
vn -1.000000 0.000000 0.000000
vn -1.000000 0.000000 0.000000
vn -1.000000 0.000000 0.000000
vn -1.000000 0.000000 0.000000
vn 0.000000 0.000000 -1.000000
vn 0.000000 0.000000 -1.000000
vn 0.000000 0.000000 -1.000000
vn 0.000000 0.000000 -1.000000
vn 0.000000 1.000000 0.000000
vn 0.000000 1.000000 0.000000
vn 0.000000 1.000000 0.000000
vn 0.000000 1.000000 0.000000
vn 1.000000 0.000000 0.000000
vn 1.000000 0.000000 0.000000
vn 1.000000 0.000000 0.000000
vn 1.000000 0.000000 0.000000
vn 0.000000 0.000000 1.000000
vn 0.000000 0.000000 1.000000
vn 0.000000 0.000000 1.000000
vn 0.000000 0.000000 1.000000
vn -1.000000 0.000000 0.000000
vn -1.000000 0.000000 0.000000
vn -1.000000 0.000000 0.000000
vn -1.000000 0.000000 0.000000
vn 0.000000 0.000000 -1.000000
vn 0.000000 0.000000 -1.000000
vn 0.000000 0.000000 -1.000000
vn 0.000000 0.000000 -1.000000
vn 1.000000 0.000000 0.000000
vn 1.000000 0.000000 0.000000
vn 1.000000 0.000000 0.000000
vn 1.000000 0.000000 0.000000
vn 0.000000 0.000000 1.000000
vn 0.000000 0.000000 1.000000
vn 0.000000 0.000000 1.000000
vn 0.000000 0.000000 1.000000
vn -1.000000 0.000000 0.000000
vn -1.000000 0.000000 0.000000
vn -1.000000 0.000000 0.000000
vn -1.000000 0.000000 0.000000
vn 0.000000 0.000000 -1.000000
vn 0.000000 0.000000 -1.000000
vn 0.000000 0.000000 -1.000000
vn 0.000000 0.000000 -1.000000
vn 1.000000 0.000000 0.000000
vn 1.000000 0.000000 0.000000
vn 1.000000 0.000000 0.000000
vn 1.000000 0.000000 0.000000
vn 0.000000 0.660762 0.750595
vn 0.000000 0.660762 0.750595
vn 0.000000 0.660762 0.750595
vn 0.000000 0.660762 0.750595
vn 0.000000 -0.660762 0.750596
vn 0.000000 -0.660762 0.750596
vn 0.000000 -0.660762 0.750596
vn 0.000000 -0.660762 0.750596
vn -0.750595 0.660762 0.000000
vn -0.750595 0.660762 0.000000
vn -0.750595 0.660762 0.000000
vn -0.750595 0.660762 0.000000
vn -0.750595 -0.660763 0.000000
vn -0.750595 -0.660763 0.000000
vn -0.750595 -0.660763 0.000000
vn -0.750595 -0.660763 0.000000
vn 0.000000 0.660762 -0.750595
vn 0.000000 0.660762 -0.750595
vn 0.000000 0.660762 -0.750595
vn 0.000000 0.660762 -0.750595
vn 0.000000 -0.660762 -0.750596
vn 0.000000 -0.660762 -0.750596
vn 0.000000 -0.660762 -0.750596
vn 0.000000 -0.660762 -0.750596
vn 0.750595 -0.660763 0.000000
vn 0.750595 -0.660763 0.000000
vn 0.750595 -0.660763 0.000000
vn 0.750595 -0.660763 0.000000
vn 0.750595 0.660762 0.000000
vn 0.750595 0.660762 0.000000
vn 0.750595 0.660762 0.000000
vn 0.750595 0.660762 0.000000
s off
g polySurface25 Rkill13:RoadKillOut
usemtl blinn1SG
f 14/1/1 1/2/2 7/3/3 13/4/4
f 6/5/5 7/6/6 1/7/7 4/8/8
f 1/2/9 14/1/10 15/9/11 4/10/12
f 4/10/13 15/9/14 16/11/15 6/12/16
f 5/13/17 3/14/18 2/15/19 8/16/20
f 16/17/21 13/4/22 7/3/23 6/18/24
f 2/15/25 10/19/26 9/20/27 8/21/28
f 11/22/29 10/19/30 2/15/31 3/14/32
f 12/23/33 11/22/34 3/14/35 5/24/36
f 5/25/37 8/21/38 9/20/39 12/26/40
f 18/27/41 17/28/42 19/29/43 20/30/44
f 21/31/45 17/28/46 18/27/47 22/32/48
f 23/33/49 21/31/50 22/32/51 24/34/52
f 24/35/53 20/30/54 19/29/55 23/36/56
f 14/1/57 13/4/58 19/29/59 17/28/60
f 9/20/61 10/19/62 18/27/63 20/30/64
f 15/9/65 14/1/66 17/28/67 21/31/68
f 10/19/69 11/22/70 22/32/71 18/27/72
f 16/11/73 15/9/74 21/31/75 23/33/76
f 11/22/77 12/23/78 24/34/79 22/32/80
f 12/26/81 9/20/82 20/30/83 24/35/84
f 13/4/85 16/17/86 23/36/87 19/29/88
