# This file uses meters as units for non-parametric coordinates.

mtllib LargeCube.mtl
g default
v -346.263916 -205.797104 165.587234
v -303.521851 -205.797104 165.587234
v -346.263916 205.797073 165.587234
v -346.263916 205.797104 147.758881
v -346.263916 -205.797104 147.947113
v -303.521851 -205.797104 147.947113
v 346.263916 -205.797104 165.587234
v 303.521729 -205.797104 165.587234
v 346.263916 205.796890 165.587234
v 346.263916 205.796890 147.758881
v 346.263916 -205.797104 147.947113
v 303.521729 -205.797104 147.947113
v -303.521851 167.043625 165.587234
v -303.521851 167.043625 147.947113
v 303.521729 167.043625 147.947113
v 303.521729 167.043625 165.587234
v -346.263916 -205.797104 -165.587234
v -303.521851 -205.797104 -165.587234
v -346.263916 205.796738 -165.587234
v -346.263916 205.796707 -147.758865
v -346.263916 -205.797104 -147.947113
v -303.521851 -205.797104 -147.947113
v 346.263916 -205.797104 -165.587234
v 303.521729 -205.797104 -165.587234
v 346.263916 205.796890 -165.587234
v 346.263916 205.796890 -147.758865
v 346.263916 -205.797104 -147.947113
v 303.521729 -205.797104 -147.947113
v 303.521729 167.043777 -147.947113
v 303.521729 167.043777 -165.587234
v -303.521973 167.042587 -147.947098
v -303.521973 167.042587 -165.587234
v -346.263794 205.796890 147.947113
v 346.263916 205.796890 147.947113
v 346.263916 205.796890 -147.947098
v -346.263794 205.796890 -147.947098
v 346.263916 -205.797104 -147.947098
v -346.263916 -205.797104 -147.947098
v -346.263916 -205.797104 147.947113
v 346.263916 -205.797104 147.947113
vt 0.439644 0.720503
vt 0.439644 0.737090
vt 0.432798 0.737090
vt 0.432798 0.720503
vt 0.439644 0.989239
vt 0.432798 0.989239
vt 0.432797 0.972652
vt 0.439642 0.972652
vt 0.432798 0.713659
vt 0.273078 0.720505
vt 0.273078 0.713586
vt 0.288118 0.737092
vt 0.432798 0.743936
vt 0.288118 0.743937
vt 0.288113 0.972660
vt 0.288111 0.965814
vt 0.432797 0.965808
vt 0.273074 0.989247
vt 0.432798 0.996085
vt 0.273074 0.996166
vt 0.294958 0.972660
vt 0.294963 0.737092
vt 0.266155 0.989247
vt 0.266160 0.720505
vt 0.439486 0.720575
vt 0.432641 0.720573
vt 0.432639 0.737160
vt 0.439486 0.737160
vt 0.432641 0.989296
vt 0.432639 0.972710
vt 0.287958 0.972723
vt 0.272921 0.989311
vt 0.439486 0.989296
vt 0.439485 0.972709
vt 0.432639 0.965865
vt 0.287958 0.965878
vt 0.432641 0.996142
vt 0.272921 0.996230
vt 0.287957 0.737154
vt 0.287957 0.743999
vt 0.432639 0.744006
vt 0.272917 0.720567
vt 0.432641 0.713728
vt 0.272917 0.713648
vt 0.294802 0.737152
vt 0.294804 0.972723
vt 0.265999 0.720567
vt 0.266002 0.989311
vt 0.718789 0.489134
vt 0.718789 0.757873
vt 0.559067 0.757873
vt 0.559067 0.489134
vt 0.993334 0.757873
vt 0.993334 0.872697
vt 0.833612 0.872697
vt 0.833612 0.757873
vt 0.833612 0.489134
vt 0.993334 0.489134
vt 0.833612 0.374310
vt 0.993334 0.374310
vt 0.444243 0.489134
vt 0.444243 0.757873
vn 0.000000 -1.000000 0.000000
vn 0.000000 -1.000000 0.000000
vn 0.000000 -1.000000 0.000000
vn 0.000000 -1.000000 0.000000
vn 0.000000 -1.000000 0.000000
vn 0.000000 -1.000000 0.000000
vn 0.000000 -1.000000 0.000000
vn 0.000000 -1.000000 0.000000
vn -1.000000 0.000000 0.000000
vn -1.000000 0.000000 0.000000
vn -1.000000 0.000000 0.000000
vn -1.000000 0.000000 0.000000
vn 0.000000 0.000000 1.000000
vn 0.000000 0.000000 1.000000
vn 0.000000 0.000000 1.000000
vn 0.000000 0.000000 1.000000
vn 1.000000 0.000000 0.000000
vn 1.000000 0.000000 0.000000
vn 1.000000 0.000000 0.000000
vn 1.000000 0.000000 0.000000
vn -1.000000 0.000000 0.000000
vn -1.000000 0.000000 0.000000
vn -1.000000 0.000000 0.000000
vn -1.000000 0.000000 0.000000
vn 0.000000 0.000000 1.000000
vn 0.000000 0.000000 1.000000
vn 0.000000 0.000000 1.000000
vn 0.000000 0.000000 1.000000
vn 1.000000 0.000000 0.000000
vn 1.000000 0.000000 0.000000
vn 1.000000 0.000000 0.000000
vn 1.000000 0.000000 0.000000
vn 0.000000 -1.000000 0.000000
vn 0.000000 -1.000000 0.000000
vn 0.000000 -1.000000 0.000000
vn 0.000000 -1.000000 0.000000
vn 0.000000 0.000000 1.000000
vn 0.000000 0.000000 1.000000
vn 0.000000 0.000000 1.000000
vn 0.000000 0.000000 1.000000
vn 0.000000 1.000000 0.000000
vn 0.000000 1.000000 0.000000
vn 0.000000 1.000000 0.000000
vn 0.000000 1.000000 0.000000
vn 0.000000 -1.000000 0.000000
vn 0.000000 -1.000000 0.000000
vn 0.000000 -1.000000 0.000000
vn 0.000000 -1.000000 0.000000
vn 0.000000 0.000000 -1.000000
vn 0.000000 0.000000 -1.000000
vn 0.000000 0.000000 -1.000000
vn 0.000000 0.000000 -1.000000
vn 0.000000 -1.000000 0.000000
vn 0.000000 -1.000000 0.000000
vn 0.000000 -1.000000 0.000000
vn 0.000000 -1.000000 0.000000
vn -1.000000 0.000000 0.000000
vn -1.000000 0.000000 0.000000
vn -1.000000 0.000000 0.000000
vn -1.000000 0.000000 0.000000
vn 1.000000 0.000000 0.000000
vn 1.000000 0.000000 0.000000
vn 1.000000 0.000000 0.000000
vn 1.000000 0.000000 0.000000
vn 1.000000 0.000000 0.000000
vn 1.000000 0.000000 0.000000
vn 1.000000 0.000000 0.000000
vn 1.000000 0.000000 0.000000
vn 0.000000 0.000000 -1.000000
vn 0.000000 0.000000 -1.000000
vn 0.000000 0.000000 -1.000000
vn 0.000000 0.000000 -1.000000
vn -1.000000 0.000000 0.000000
vn -1.000000 0.000000 0.000000
vn -1.000000 0.000000 0.000000
vn -1.000000 0.000000 0.000000
vn 0.000002 -1.000000 0.000000
vn 0.000002 -1.000000 0.000000
vn 0.000002 -1.000000 0.000000
vn 0.000002 -1.000000 0.000000
vn 0.000000 0.000000 -1.000000
vn 0.000000 0.000000 -1.000000
vn 0.000000 0.000000 -1.000000
vn 0.000000 0.000000 -1.000000
vn 0.000000 1.000000 0.000004
vn 0.000000 1.000000 0.000004
vn 0.000000 1.000000 0.000004
vn 0.000000 1.000000 0.000004
vn 0.000000 0.000000 1.000000
vn 0.000000 0.000000 1.000000
vn 0.000000 0.000000 1.000000
vn 0.000000 0.000000 1.000000
vn -1.000000 0.000000 0.000000
vn -1.000000 0.000000 0.000000
vn -1.000000 0.000000 0.000000
vn -1.000000 0.000000 0.000000
vn 0.000000 1.000000 0.000000
vn 0.000000 1.000000 0.000000
vn 0.000000 1.000000 0.000000
vn 0.000000 1.000000 0.000000
vn 0.000000 0.000000 -1.000000
vn 0.000000 0.000000 -1.000000
vn 0.000000 0.000000 -1.000000
vn 0.000000 0.000000 -1.000000
vn 1.000000 0.000000 0.000000
vn 1.000000 0.000000 0.000000
vn 1.000000 0.000000 0.000000
vn 1.000000 0.000000 0.000000
vn 0.000000 -1.000000 0.000000
vn 0.000000 -1.000000 0.000000
vn 0.000000 -1.000000 0.000000
vn 0.000000 -1.000000 0.000000
s off
g polySurface59
usemtl blinn1SG
f 5/1/1 6/2/2 2/3/3 1/4/4
f 11/5/5 7/6/6 8/7/7 12/8/8
f 5/9/9 1/4/10 3/10/11 4/11/12
f 1/4/13 2/3/14 13/12/15 3/10/16
f 2/3/17 6/13/18 14/14/19 13/12/20
f 8/7/21 16/15/22 15/16/23 12/17/24
f 7/6/25 9/18/26 16/15/27 8/7/28
f 11/19/29 10/20/30 9/18/31 7/6/32
f 15/21/33 16/15/34 13/12/35 14/22/36
f 16/15/37 9/18/38 3/10/39 13/12/40
f 3/10/41 9/18/42 10/23/43 4/24/44
f 21/25/45 17/26/46 18/27/47 22/28/48
f 23/29/49 24/30/50 30/31/51 25/32/52
f 27/33/53 28/34/54 24/30/55 23/29/56
f 24/30/57 28/35/58 29/36/59 30/31/60
f 27/37/61 23/29/62 25/32/63 26/38/64
f 18/27/65 32/39/66 31/40/67 22/41/68
f 17/26/69 19/42/70 32/39/71 18/27/72
f 21/43/73 20/44/74 19/42/75 17/26/76
f 31/45/77 32/39/78 30/31/79 29/46/80
f 32/39/81 19/42/82 25/32/83 30/31/84
f 25/32/85 19/42/86 20/47/87 26/48/88
f 34/49/89 33/50/90 39/51/91 40/52/92
f 38/53/93 39/54/94 33/55/95 36/56/96
f 33/50/97 34/49/98 35/57/99 36/56/100
f 36/56/101 35/57/102 37/58/103 38/53/104
f 37/58/105 35/57/106 34/59/107 40/60/108
f 37/61/109 40/52/110 39/51/111 38/62/112
