# This file uses meters as units for non-parametric coordinates.

mtllib RectangleRoof.mtl
g default
v 156.271484 -43.430634 171.693748
v 105.850586 -43.430634 171.693748
v 156.271484 10.977875 171.693748
v 105.850586 10.977875 171.693748
v 156.271484 10.977875 88.542953
v 105.850586 10.977875 88.542953
v 156.271484 -10.074860 121.478119
v 105.850586 -10.074860 121.478119
v 131.061035 35.733734 171.693748
v 131.061035 35.733734 52.555134
v 25.210449 -43.430634 171.693748
v -25.210449 -43.430634 171.693748
v 25.210449 10.977875 171.693748
v -25.210449 10.977875 171.693748
v 25.210449 10.977875 88.542953
v -25.210449 10.977875 88.542953
v 25.210449 -10.074860 121.478119
v -25.210449 -10.074860 121.478119
v 0.000000 35.733734 171.693748
v 0.000000 35.733734 52.555134
v -105.850342 -43.430634 171.693748
v -156.271240 -43.430634 171.693748
v -105.850342 10.977875 171.693748
v -156.271240 10.977875 171.693748
v -105.850342 10.977875 88.542953
v -156.271240 10.977875 88.542953
v -105.850342 -10.074860 121.478119
v -156.271240 -10.074860 121.478119
v -131.060791 35.733734 171.693748
v -131.060791 35.733734 52.555134
v 156.271484 -43.430634 -171.693748
v 105.850586 -43.430634 -171.693748
v 156.271484 10.977875 -171.693748
v 105.850586 10.977875 -171.693748
v 156.271484 10.977875 -88.542953
v 105.850586 10.977875 -88.542953
v 156.271484 -10.074860 -121.478111
v 105.850586 -10.074860 -121.478111
v 131.061035 35.733734 -171.693748
v 131.061035 35.733734 -52.555130
v 25.210449 -43.430634 -171.693748
v -25.210449 -43.430634 -171.693748
v 25.210449 10.977875 -171.693748
v -25.210449 10.977875 -171.693748
v 25.210449 10.977875 -88.542953
v -25.210449 10.977875 -88.542953
v 25.210449 -10.074860 -121.478111
v -25.210449 -10.074860 -121.478111
v 0.000000 35.733734 -171.693748
v 0.000000 35.733734 -52.555130
v -105.850342 -43.430634 -171.693748
v -156.271240 -43.430634 -171.693748
v -105.850342 10.977875 -171.693748
v -156.271240 10.977875 -171.693748
v -105.850342 10.977875 -88.542953
v -156.271240 10.977875 -88.542953
v -105.850342 -10.074860 -121.478111
v -156.271240 -10.074860 -121.478111
v -131.060791 35.733734 -171.693748
v -131.060791 35.733734 -52.555130
v -262.121826 -53.106293 186.799202
v 262.121826 -53.106293 186.799202
v 262.121826 -53.106293 -186.799202
v -262.121826 -53.106293 -186.799202
v 262.121826 -71.126556 -186.799202
v -262.121826 -71.126556 -186.799202
v -262.121826 -71.126556 186.799202
v 262.121826 -71.126556 186.799202
v -183.878174 71.126556 0.000000
v 183.878418 71.126556 0.000000
vt 0.070505 0.960952
vt 0.070499 0.982065
vt 0.060711 0.991667
vt 0.050940 0.960943
vt 0.102766 0.982075
vt 0.116727 0.995792
vt 0.070494 0.995775
vt 0.050932 0.982057
vt 0.018664 0.982047
vt 0.031275 0.973608
vt 0.089987 0.973901
vt 0.050927 0.995769
vt 0.004695 0.995753
vt 0.071413 0.960943
vt 0.071413 0.982059
vt 0.061629 0.991664
vt 0.051846 0.960943
vt 0.103679 0.982059
vt 0.117645 0.995769
vt 0.071413 0.995769
vt 0.051846 0.982057
vt 0.019579 0.982059
vt 0.032187 0.973616
vt 0.090899 0.973888
vt 0.051846 0.995769
vt 0.005613 0.995769
vt 0.070667 0.960921
vt 0.070667 0.982036
vt 0.060883 0.991642
vt 0.051100 0.960921
vt 0.102934 0.982036
vt 0.116899 0.995747
vt 0.070667 0.995747
vt 0.051100 0.982035
vt 0.018833 0.982035
vt 0.031441 0.973594
vt 0.090153 0.973865
vt 0.051100 0.995747
vt 0.004869 0.995747
vt 0.050808 0.960945
vt 0.070375 0.960943
vt 0.060592 0.991664
vt 0.050808 0.982059
vt 0.050808 0.995769
vt 0.004576 0.995769
vt 0.018542 0.982059
vt 0.090035 0.973614
vt 0.102642 0.982057
vt 0.070375 0.982057
vt 0.031322 0.973888
vt 0.070375 0.995769
vt 0.116608 0.995769
vt 0.052060 0.960943
vt 0.071627 0.960943
vt 0.061843 0.991664
vt 0.052060 0.982057
vt 0.052060 0.995769
vt 0.005827 0.995769
vt 0.019793 0.982057
vt 0.091285 0.973614
vt 0.103893 0.982059
vt 0.071625 0.982057
vt 0.032573 0.973888
vt 0.071625 0.995769
vt 0.117858 0.995769
vt 0.051234 0.960943
vt 0.070801 0.960943
vt 0.061018 0.991664
vt 0.051234 0.982059
vt 0.051234 0.995769
vt 0.005001 0.995769
vt 0.018967 0.982057
vt 0.090460 0.973614
vt 0.103068 0.982059
vt 0.070801 0.982057
vt 0.031748 0.973888
vt 0.070801 0.995769
vt 0.117032 0.995769
vt 0.600180 0.778793
vt 0.607511 0.771798
vt 0.611703 0.995663
vt 0.604115 0.988948
vt 0.452044 0.780464
vt 0.599756 0.771669
vt 0.452468 0.787590
vt 0.445644 0.787695
vt 0.455575 0.986143
vt 0.448750 0.986249
vt 0.455440 0.993307
vt 0.603979 0.996111
vt 0.771803 0.761866
vt 0.776123 0.992584
vt 0.528959 0.948495
vt 0.527106 0.823924
vn 0.000000 0.000000 1.000000
vn 0.000000 0.000000 1.000000
vn 0.000000 0.000000 1.000000
vn 0.000000 0.000000 1.000000
vn 0.700644 0.713511 0.000000
vn 0.700644 0.713511 0.000000
vn 0.700644 0.713511 0.000000
vn 0.700644 0.713511 0.000000
vn -1.000000 0.000000 0.000000
vn -1.000000 0.000000 0.000000
vn -1.000000 0.000000 0.000000
vn -1.000000 0.000000 0.000000
vn 1.000000 0.000000 0.000000
vn 1.000000 0.000000 0.000000
vn 1.000000 0.000000 0.000000
vn 1.000000 0.000000 0.000000
vn -0.700646 0.713509 0.000000
vn -0.700646 0.713509 0.000000
vn -0.700646 0.713509 0.000000
vn -0.700646 0.713509 0.000000
vn 0.000000 0.000000 1.000000
vn 0.000000 0.000000 1.000000
vn 0.000000 0.000000 1.000000
vn 0.000000 0.000000 1.000000
vn 0.000000 0.000000 1.000000
vn 0.000000 0.000000 1.000000
vn 0.000000 0.000000 1.000000
vn 0.700644 0.713511 0.000000
vn 0.700644 0.713511 0.000000
vn 0.700644 0.713511 0.000000
vn 0.700644 0.713511 0.000000
vn -1.000000 0.000000 0.000000
vn -1.000000 0.000000 0.000000
vn -1.000000 0.000000 0.000000
vn -1.000000 0.000000 0.000000
vn 1.000000 0.000000 0.000000
vn 1.000000 0.000000 0.000000
vn 1.000000 0.000000 0.000000
vn 1.000000 0.000000 0.000000
vn -0.700646 0.713509 0.000000
vn -0.700646 0.713509 0.000000
vn -0.700646 0.713509 0.000000
vn -0.700646 0.713509 0.000000
vn 0.000000 0.000000 1.000000
vn 0.000000 0.000000 1.000000
vn 0.000000 0.000000 1.000000
vn 0.000000 0.000000 1.000000
vn 0.000000 0.000000 1.000000
vn 0.000000 0.000000 1.000000
vn 0.000000 0.000000 1.000000
vn 0.700644 0.713511 0.000000
vn 0.700644 0.713511 0.000000
vn 0.700644 0.713511 0.000000
vn 0.700644 0.713511 0.000000
vn -1.000000 0.000000 0.000000
vn -1.000000 0.000000 0.000000
vn -1.000000 0.000000 0.000000
vn -1.000000 0.000000 0.000000
vn 1.000000 0.000000 0.000000
vn 1.000000 0.000000 0.000000
vn 1.000000 0.000000 0.000000
vn 1.000000 0.000000 0.000000
vn -0.700646 0.713509 0.000000
vn -0.700646 0.713509 0.000000
vn -0.700646 0.713509 0.000000
vn -0.700646 0.713509 0.000000
vn 0.000000 0.000000 1.000000
vn 0.000000 0.000000 1.000000
vn 0.000000 0.000000 1.000000
vn 0.000000 0.000000 -1.000000
vn 0.000000 0.000000 -1.000000
vn 0.000000 0.000000 -1.000000
vn 0.000000 0.000000 -1.000000
vn 0.700644 0.713511 0.000000
vn 0.700644 0.713511 0.000000
vn 0.700644 0.713511 0.000000
vn 0.700644 0.713511 0.000000
vn -1.000000 0.000000 0.000000
vn -1.000000 0.000000 0.000000
vn -1.000000 0.000000 0.000000
vn -1.000000 0.000000 0.000000
vn 1.000000 0.000000 0.000000
vn 1.000000 0.000000 0.000000
vn 1.000000 0.000000 0.000000
vn 1.000000 0.000000 0.000000
vn -0.700646 0.713509 0.000000
vn -0.700646 0.713509 0.000000
vn -0.700646 0.713509 0.000000
vn -0.700646 0.713509 0.000000
vn 0.000000 0.000000 -1.000000
vn 0.000000 0.000000 -1.000000
vn 0.000000 0.000000 -1.000000
vn 0.000000 0.000000 -1.000000
vn 0.000000 0.000000 -1.000000
vn 0.000000 0.000000 -1.000000
vn 0.000000 0.000000 -1.000000
vn 0.700644 0.713511 0.000000
vn 0.700644 0.713511 0.000000
vn 0.700644 0.713511 0.000000
vn 0.700644 0.713511 0.000000
vn -1.000000 0.000000 0.000000
vn -1.000000 0.000000 0.000000
vn -1.000000 0.000000 0.000000
vn -1.000000 0.000000 0.000000
vn 1.000000 0.000000 0.000000
vn 1.000000 0.000000 0.000000
vn 1.000000 0.000000 0.000000
vn 1.000000 0.000000 0.000000
vn -0.700646 0.713509 0.000000
vn -0.700646 0.713509 0.000000
vn -0.700646 0.713509 0.000000
vn -0.700646 0.713509 0.000000
vn 0.000000 0.000000 -1.000000
vn 0.000000 0.000000 -1.000000
vn 0.000000 0.000000 -1.000000
vn 0.000000 0.000000 -1.000000
vn 0.000000 0.000000 -1.000000
vn 0.000000 0.000000 -1.000000
vn 0.000000 0.000000 -1.000000
vn 0.700644 0.713511 0.000000
vn 0.700644 0.713511 0.000000
vn 0.700644 0.713511 0.000000
vn 0.700644 0.713511 0.000000
vn -1.000000 0.000000 0.000000
vn -1.000000 0.000000 0.000000
vn -1.000000 0.000000 0.000000
vn -1.000000 0.000000 0.000000
vn 1.000000 0.000000 0.000000
vn 1.000000 0.000000 0.000000
vn 1.000000 0.000000 0.000000
vn 1.000000 0.000000 0.000000
vn -0.700646 0.713509 0.000000
vn -0.700646 0.713509 0.000000
vn -0.700646 0.713509 0.000000
vn -0.700646 0.713509 0.000000
vn 0.000000 0.000000 -1.000000
vn 0.000000 0.000000 -1.000000
vn 0.000000 0.000000 -1.000000
vn 0.000000 0.000000 1.000000
vn 0.000000 0.000000 1.000000
vn 0.000000 0.000000 1.000000
vn 0.000000 0.000000 1.000000
vn -1.000000 0.000000 0.000000
vn -1.000000 0.000000 0.000000
vn -1.000000 0.000000 0.000000
vn -1.000000 0.000000 0.000000
vn 0.000000 0.000000 -1.000000
vn 0.000000 0.000000 -1.000000
vn 0.000000 0.000000 -1.000000
vn 0.000000 0.000000 -1.000000
vn 1.000000 0.000000 0.000000
vn 1.000000 0.000000 0.000000
vn 1.000000 0.000000 0.000000
vn 1.000000 0.000000 0.000000
vn 0.000000 -1.000000 0.000000
vn 0.000000 -1.000000 0.000000
vn 0.000000 -1.000000 0.000000
vn 0.000000 -1.000000 0.000000
vn 0.000000 0.832667 0.553774
vn 0.000000 0.832667 0.553774
vn 0.000000 0.832667 0.553774
vn 0.000000 0.832667 0.553774
vn 0.846164 0.532923 0.000000
vn 0.846164 0.532923 0.000000
vn 0.846164 0.532923 0.000000
vn 0.000000 0.832667 -0.553774
vn 0.000000 0.832667 -0.553774
vn 0.000000 0.832667 -0.553774
vn 0.000000 0.832667 -0.553774
vn -0.846163 0.532924 0.000000
vn -0.846163 0.532924 0.000000
vn -0.846163 0.532924 0.000000
s off
g polySurface52
usemtl blinn1SG
f 1/1/1 3/2/2 9/3/3 2/4/4
f 3/2/5 5/5/6 10/6/7 9/7/8
f 2/4/9 4/8/10 6/9/11 8/10/12
f 7/11/13 5/5/14 3/2/15 1/1/16
f 9/12/17 10/13/18 6/9/19 4/8/20
f 9/3/21 4/8/22 2/4/23
f 11/14/24 13/15/25 19/16/26 12/17/27
f 13/15/28 15/18/29 20/19/30 19/20/31
f 12/17/32 14/21/33 16/22/34 18/23/35
f 17/24/36 15/18/37 13/15/38 11/14/39
f 19/25/40 20/26/41 16/22/42 14/21/43
f 19/16/44 14/21/45 12/17/46
f 21/27/47 23/28/48 29/29/49 22/30/50
f 23/28/51 25/31/52 30/32/53 29/33/54
f 22/30/55 24/34/56 26/35/57 28/36/58
f 27/37/59 25/31/60 23/28/61 21/27/62
f 29/38/63 30/39/64 26/35/65 24/34/66
f 29/29/67 24/34/68 22/30/69
f 31/40/70 32/41/71 39/42/72 33/43/73
f 33/43/74 39/44/75 40/45/76 35/46/77
f 32/41/78 38/47/79 36/48/80 34/49/81
f 37/50/82 31/40/83 33/43/84 35/46/85
f 39/51/86 34/49/87 36/48/88 40/52/89
f 39/42/90 32/41/91 34/49/92
f 41/53/93 42/54/94 49/55/95 43/56/96
f 43/56/97 49/57/98 50/58/99 45/59/100
f 42/54/101 48/60/102 46/61/103 44/62/104
f 47/63/105 41/53/106 43/56/107 45/59/108
f 49/64/109 44/62/110 46/61/111 50/65/112
f 49/55/113 42/54/114 44/62/115
f 51/66/116 52/67/117 59/68/118 53/69/119
f 53/69/120 59/70/121 60/71/122 55/72/123
f 52/67/124 58/73/125 56/74/126 54/75/127
f 57/76/128 51/66/129 53/69/130 55/72/131
f 59/77/132 54/75/133 56/74/134 60/78/135
f 59/68/136 52/67/137 54/75/138
f 61/79/139 67/80/140 68/81/141 62/82/142
f 66/83/143 67/84/144 61/79/145 64/85/146
f 66/86/147 64/85/148 63/87/149 65/88/150
f 65/89/151 63/87/152 62/82/153 68/90/154
f 67/80/155 66/91/156 65/92/157 68/81/158
f 70/93/159 69/94/160 61/79/161 62/82/162
f 62/82/163 63/87/164 70/93/165
f 64/85/166 69/94/167 70/93/168 63/87/169
f 64/85/170 61/79/171 69/94/172
